{
  "duplicates": [
    {
      "first_name": "ZLarry",
      "last_name": "ZSmith",
      "entity_name": "ZTruimph Corp.",
      "street1": "198 Greenway Drive",
      "street2": "",
      "city": "Houston",
      "state": "TX",
      "zip": "77023",
      "employer": "Programmer",
      "occupation": "DataCom",
      "userContact": {
        "first_name": "larry",
        "last_name": "smith",
        "entity_name": "T Corp.",
        "street1": "198 Greenway Dr",
        "street2": "",
        "city": "Houston",
        "state": "TX",
        "zip": "77023",
        "employer": "Programmer",
        "occupation": "Datacom"
      }
    },
    {
      "first_name": "alisah",
      "last_name": "tasman",
      "entity_name": "Lawson Corp.",
      "street1": "9000 Sunset Blvd.",
      "street2": "19th Flr",
      "city": "West. Hollywood",
      "state": "CA",
      "zip": "90069",
      "employer": "Mercury Films",
      "occupation": "Producer",
      "userContact": {
        "first_name": "Alisah",
        "last_name": "Tasman",
        "entity_name": "Lawson Corp.",
        "street1": "9000 Sunset Blvd.",
        "street2": "19th Flr",
        "city": "W. Hollywood",
        "state": "CA",
        "zip": "90069",
        "employer": "Mercury Films",
        "occupation": "Producer"
      }
    },
    {
      "first_name": "Andy",
      "last_name": "Taylor",
      "entity_name": "Jenkins",
      "street1": "8912 Covina Dr",
      "street2": "",
      "city": "Covina",
      "state": "CA",
      "zip": "91723",
      "employer": "Self",
      "occupation": "Guitarist",
      "userContact": {
        "first_name": "Andy",
        "last_name": "Taylor",
        "entity_name": "Jenkins",
        "street1": "8912 Covina Dr",
        "street2": "",
        "city": "Covina",
        "state": "CA",
        "zip": "91723",
        "employer": "Self-Employed",
        "occupation": "Guitarist"
      }
    },
    {
      "first_name": "Rachael",
      "last_name": "Cruz",
      "entity_name": "Rand Corp.",
      "street1": "18920 West Pike",
      "street2": "",
      "city": "Dallas",
      "state": "TX",
      "zip": "75208",
      "employer": "Delmar",
      "occupation": "Expo Coordinator",
      "userContact": {
        "first_name": "Rachael",
        "last_name": "Cruz",
        "entity_name": "Rand Corp.",
        "street1": "18920 West Pike",
        "street2": "",
        "city": "Dallas",
        "state": "TX",
        "zip": "75208",
        "employer": "Delmar",
        "occupation": "Expo Coordinator"
      }
    },
    {
      "first_name": "Joe",
      "last_name": "Anderson",
      "entity_name": "Int. Org.",
      "street1": "80522 Elmore Rd.",
      "street2": "8th Floor",
      "city": "Springfield",
      "state": "MA",
      "zip": "67788",
      "employer": "Strong Arm Tech",
      "occupation": "Business Dev",
      "userContact": {
        "first_name": "Joe",
        "last_name": "Anderson",
        "entity_name": "Int. Org.",
        "street1": "80522 Elmore Rd.",
        "street2": "8th Floor",
        "city": "Springfield",
        "state": "MA",
        "zip": "67788",
        "employer": "Strong Arm Tech",
        "occupation": "Business Dev"
      }
    },
    {
      "first_name": "Susan",
      "last_name": "Jacobs",
      "entity_name": "Lucent",
      "street1": "40404 Cedar Way",
      "street2": "Suite B",
      "city": "Arlington",
      "state": "VA",
      "zip": "22206",
      "employer": "Empire",
      "occupation": "Analyst",
      "userContact": {
        "first_name": "Susan",
        "last_name": "Jacobs",
        "entity_name": "Lucent",
        "street1": "40404 Cedar Way",
        "street2": "Suite B",
        "city": "Arlington",
        "state": "VA",
        "zip": "22206",
        "employer": "Empire",
        "occupation": "Analyst"
      }
    },
    {
      "first_name": "June",
      "last_name": "Mayers",
      "entity_name": "",
      "street1": "2222 Almond Dr.",
      "street2": "",
      "city": "Arlington",
      "state": "TX",
      "zip": "22206",
      "employer": "Kronos",
      "occupation": "Developer",
      "userContact": {
        "first_name": "June",
        "last_name": "Mayers",
        "entity_name": "",
        "street1": "2222 Almond Dr.",
        "street2": "",
        "city": "Arlington",
        "state": "TX",
        "zip": "22206",
        "employer": "Kronos",
        "occupation": "Developer"
      }
    }
  ],
  "uploadFileId": 123456789,
  "totalCount": 70,
  "itemsPerPage": 7,
  "pageNumber": 1,
  "totalPages": 10
}