{
  "duplicates": [
    {
      "entity_type": "IND",
      "entity_name": "",
      "first_name": "Larry",
      "last_name": "Smith",
      "middle_name": "",
      "prefix": "Mr.",
      "suffix": "II",
      "street1": "198 Greenway Drive",
      "street2": "#45",
      "city": "Houston",
      "state": "TX",
      "zip": "77023",
      "employer": "DataCom",
      "occupation": "Programmer",
      "potentialDupes": [
        {
          "seq": 1,
          "entity_type": "IND",
          "entity_name": "",
          "first_name": "larry",
          "last_name": "smith",
          "street1": "198 Greenway Dr",
          "street2": "",
          "city": "Houston",
          "state": "TX",
          "zip": "77023",
          "employer": "Programmer",
          "occupation": "Datacom"
        },
        {
          "seq": 2,
          "entity_type": "IND",
          "entity_name": "",
          "first_name": "Larry",
          "last_name": "Smith",
          "street1": "198 Greenway",
          "street2": "",
          "city": "Houston",
          "state": "TX",
          "zip": "77023",
          "employer": "",
          "occupation": ""
        },
        {
          "seq": 3,
          "entity_type": "IND",
          "entity_name": "",
          "first_name": "Larry",
          "last_name": "Smith",
          "street1": "198 Greenway Drive",
          "street2": "",
          "city": "Houston",
          "state": "TX",
          "zip": "77023",
          "employer": "",
          "occupation": ""
        },
        {
          "seq": 4,
          "entity_type": "IND",
          "entity_name": "",
          "first_name": "Larry",
          "last_name": "Smith",
          "street1": "198 Greenway Drive",
          "street2": "",
          "city": "Houston",
          "state": "TX",
          "zip": "77023",
          "employer": "",
          "occupation": ""
        }
      ]
    },
    {
      "entity_type": "ORG",
      "entity_name": "Some PAC for Some Purpose",
      "first_name": "",
      "last_name": "",
      "middle_name": "",
      "prefix": "",
      "suffix": "",
      "street1": "1000 Main St",
      "street2": "#45",
      "city": "Houston",
      "state": "TX",
      "zip": "77023",
      "employer": "Apple",
      "occupation": "CEO",
      "potentialDupes": [
        {
          "entity_type": "ORG",
          "entity_name": "Some PAC for Some Purpose",
          "first_name": "",
          "last_name": "",
          "middle_name": "",
          "prefix": "",
          "suffix": "",
          "street1": "1000 Main Street",
          "street2": "#45",
          "city": "Houston",
          "state": "TX",
          "zip": "77023",
          "employer": "Apple",
          "occupation": "CEO"
        },
        {
          "entity_type": "ORG",
          "entity_name": "Some PAC for Some Purpose",
          "first_name": "",
          "last_name": "",
          "middle_name": "",
          "prefix": "",
          "suffix": "",
          "street1": "1000 Main St.",
          "street2": "#45",
          "city": "Houston",
          "state": "TX",
          "zip": "77023",
          "employer": "Apple",
          "occupation": "CIO"
        }
      ]
    }
  ],
  "uploadFileId": 123456789,
  "totalCount": 70,
  "itemsPerPage": 7,
  "pageNumber": 1,
  "totalPages": 10
}