{
  "validation_errors": [
    {
      "committee_id": {
        "value": "",
        "is_error": true,
        "error_message": "Required"
      },
      "entity_type": {
        "value": null,
        "is_error": true,
        "error_message": "Required"
      },
      "first_name": {
        "value": "Larry",
        "is_error": false
      },
      "last_name": {
        "value": "Smith",
        "is_error": false
      },
      "middle_name": {
        "value": "",
        "is_error": false
      },
      "prefix": {
        "value": "",
        "is_error": false
      },
      "suffix": {
        "value": "",
        "is_error": false
      },
      "entity_name": {
        "value": "Truimph Corp.",
        "is_error": false
      },
      "street1": {
        "value": "198 Greenway Drive",
        "is_error": false
      },
      "street2": {
        "value": "",
        "is_error": false
      },
      "city": {
        "value": "Houston",
        "is_error": false
      },
      "state": {
        "value": "TX",
        "is_error": false
      },
      "zip": {
        "value": "77023",
        "is_error": false
      },
      "employer": {
        "value": "DataCom",
        "is_error": false
      },
      "occupation": {
        "value": "Programmer",
        "is_error": false
      },
      "candidate_id": {
        "value": "H98765431",
        "is_error": false
      },
      "office_sought": {
        "value": "House",
        "is_error": false
      },
      "office_state": {
        "value": "TX",
        "is_error": false
      },
      "district": {
        "value": "20",
        "is_error": false
      },
      "multi_candidate_cmte_status": {
        "value": "0",
        "is_error": false
      }
    },
    {
      "committee_id": {
        "value": "",
        "is_error": true,
        "error_message": "Required"
      },
      "entity_type": {
        "value": null,
        "is_error": true,
        "error_message": "Required"
      },
      "first_name": {
        "value": "",
        "is_error": true,
        "error_message": "Required"
      },
      "last_name": {
        "value": "",
        "is_error": true,
        "error_message": "Required"
      },
      "middle_name": {
        "value": "",
        "is_error": true,
        "error_message": "Required"
      },
      "prefix": {
        "value": "56",
        "is_error": true,
        "error_message": "Invalid"
      },
      "suffix": {
        "value": "*",
        "is_error": true,
        "error_message": "Invalid"
      },
      "entity_name": {
        "value": "",
        "is_error": true,
        "error_message": "Required"
      },
      "street1": {
        "value": "",
        "is_error": true,
        "error_message": "Required"
      },
      "street2": {
        "value": ">>>",
        "is_error": true,
        "error_message": "Invalid"
      },
      "city": {
        "value": "",
        "is_error": true,
        "error_message": "Required"
      },
      "state": {
        "value": "VV",
        "is_error": true,
        "error_message": "Not a valid state"
      },
      "zip": {
        "value": "7702",
        "is_error": true,
        "error_message": "Invalid Zip"
      },
      "employer": {
        "value": "",
        "is_error": true,
        "error_message": "Required"
      },
      "occupation": {
        "value": "",
        "is_error": true,
        "error_message": "Required"
      },
      "candidate_id": {
        "value": "",
        "is_error": true,
        "error_message": "Required"
      },
      "office_sought": {
        "value": "Office",
        "is_error": true,
        "error_message": "House, Senate or Presidential"
      },
      "office_state": {
        "value": "",
        "is_error": true,
        "error_message": "Required"
      },
      "district": {
        "value": "AA",
        "is_error": true,
        "error_message": "Must be a 2 digit number"
      },
      "multi_candidate_cmte_status": {
        "value": "0",
        "is_error": true,
        "error_message": "Must be 0 or 1"
      }
    }
  ],
  "uploadFileId": 123456789,
  "totalCount": 34,
  "itemsPerPage": 7,
  "pageNumber": 1,
  "totalPages": 5
}